<?xml version="1.0" encoding="utf-8"?>
<!-- =================================================================================== -->
<!-- |    This document was autogenerated by xacro from /home/kris/pos_ws/src/pos/pos_urdf/urdf/pos_2020.urdf.xacro | -->
<!-- |    EDITING THIS FILE BY HAND IS NOT RECOMMENDED                                 | -->
<!-- =================================================================================== -->
<robot name="pos">
  <link name="base_link"/>
  <link name="gantry"/>
  <link name="gps_port"/>
  <link name="gps_stbd"/>
  <link name="ustrain_imu"/>
  <!--      <link name="livox_lidar_nom"/>
        <link name="livox_lidar"/>-->
  <link name="guillotine_stbd"/>
  <link name="wassp_nom"/>
  <link name="wassp"/>
  <link name="rbr_ctd"/>
  <link name="norbit_nom"/>
  <link name="norbit"/>
  <link name="guillotine_port"/>
  <link name="nortek_dvl_nom"/>
  <link name="nortek_dvl"/>
  <!--        <link name="side_scan_base_nom"/>
          <link name="side_scan_base"/>
            <link name="left_side_scan"/>
            <link name="right_side_scan"/>-->
  <!-- Joints -->
  <joint name="base_to_gantry" type="fixed">
    <parent link="base_link"/>
    <child link="gantry"/>
    <origin rpy="0 0 0" xyz="0.0191 0.0190 -0.3064"/>
  </joint>
  <!-- Joints: gantry -->
  <joint name="gantry_to_gps_port" type="fixed">
    <parent link="gantry"/>
    <child link="gps_port"/>
    <origin rpy="0 0 0" xyz="-0.0191 1.2891 0.3064"/>
  </joint>
  <joint name="gantry_to_gps_stbd" type="fixed">
    <parent link="gantry"/>
    <child link="gps_stbd"/>
    <origin rpy="0 0 1.57079632679" xyz="-0.0191 -0.0190 0.3064"/>
  </joint>
  <joint name="gantry_to_ustrain_imu" type="fixed">
    <parent link="gantry"/>
    <child link="ustrain_imu"/>
    <origin rpy="0 0 1.57079632679" xyz="-0.2056 0.0381 -0.0585"/>
  </joint>
  <!--    <joint name="gantry_to_livox_lidar_nom" type="fixed">
      <parent link="gantry"/>
      <child link="livox_lidar_nom"/>
      <origin xyz="-0.0381 0.83185 0.51752" rpy="0 0 0"/>
    </joint>-->
  <!-- Joints: stbd Guillotine -->
  <joint name="gantry_to_guillotine_stbd" type="fixed">
    <parent link="gantry"/>
    <child link="guillotine_stbd"/>
    <origin rpy="0 0 0" xyz="-0.0889 0.0889 -0.9017"/>
  </joint>
  <joint name="guillotine_stbd_to_wassp_nom" type="fixed">
    <parent link="guillotine_stbd"/>
    <child link="wassp_nom"/>
    <origin rpy="3.14159265359 0 0" xyz="-0.2096 0.0381 0"/>
  </joint>
  <joint name="guillotine_stbd_to_rbr_ctd" type="fixed">
    <parent link="guillotine_stbd"/>
    <child link="rbr_ctd"/>
    <origin rpy="0 0 0" xyz="-0.0234 0.1443 0.0441"/>
  </joint>
  <joint name="guillotine_stbd_to_norbit_nom" type="fixed">
    <parent link="guillotine_stbd"/>
    <child link="norbit_nom"/>
    <origin rpy="3.14159265359 0 0" xyz="-0.4699 0.0381 0"/>
  </joint>
  <!-- Joints: port Guillotine -->
  <joint name="gantry_to_guillotine_port" type="fixed">
    <parent link="gantry"/>
    <child link="guillotine_port"/>
    <origin rpy="0 0 0" xyz="-0.0889 1.1811 -0.9017"/>
  </joint>
  <joint name="guillotine_port_to_nortek_dvl_nom" type="fixed">
    <parent link="guillotine_port"/>
    <child link="nortek_dvl_nom"/>
    <origin rpy="3.14159265359 0 0" xyz="-0.2096 -0.0381 0"/>
  </joint>
  <!--      <joint name="guillotine_port_to_side_scan_base_nom" type="fixed">
        <parent link="guillotine_port"/>
        <child link="side_scan_base_nom"/>
        <origin xyz="-0.2096 -0.0381 0" rpy="0 0 0"/>
      </joint>-->
  <!-- Calibrated reference gantrys -->
  <!--    <joint name="livox_lidar_nom_to_livox_lidar" type="fixed">
      <parent link="livox_lidar_nom"/>
      <child link="livox_lidar"/>
      <origin xyz="0 0 0" rpy="0 0 0"/>
    </joint>-->
  <joint name="wassp_nom_to_wassp" type="fixed">
    <parent link="wassp_nom"/>
    <child link="wassp"/>
    <origin rpy="0 0 0" xyz="0 0 0"/>
  </joint>
  <joint name="norbit_nom_to_norbit" type="fixed">
    <parent link="norbit_nom"/>
    <child link="norbit"/>
    <origin rpy="0 0 0" xyz="0 0 0"/>
  </joint>
  <joint name="nortek_dvl_nom_to_nortek_dvl" type="fixed">
    <parent link="nortek_dvl_nom"/>
    <child link="nortek_dvl"/>
    <origin rpy="0 0 0" xyz="0 0 0"/>
  </joint>
  <!--  <joint name="side_scan_base_nom_to_side_scan_base" type="fixed">
    <parent link="side_scan_base_nom"/>
    <child link="side_scan_base"/>
    <origin xyz="0 0 0" rpy="0 0 0"/>
  </joint>
  <joint name="side_scan_base_to_left_side_scan" type="fixed">
    <parent link="side_scan_base"/>
    <child link="left_side_scan"/>
    <origin xyz="0 0.1 -0.089" rpy="0 ${pi/6} ${pi/2}"/>
  </joint>
  <joint name="side_scan_base_to_right_side_scan" type="fixed">
    <parent link="side_scan_base"/>
    <child link="right_side_scan"/>
    <origin xyz="0 -0.1 -0.089" rpy="0 ${pi/6} ${-pi/2}"/>
  </joint>-->
</robot>
